<?xml version="1.0" encoding="iso-8859-1"?>
<!-- Generator: Adobe Illustrator 15.0.2, SVG Export Plug-In . SVG Version: 6.00 Build 0)  -->
<!DOCTYPE svg PUBLIC "-//W3C//DTD SVG 1.1//EN" "http://www.w3.org/Graphics/SVG/1.1/DTD/svg11.dtd">
<svg version="1.1" id="Layer_1" xmlns="http://www.w3.org/2000/svg" xmlns:xlink="http://www.w3.org/1999/xlink" x="0px" y="0px"
	 width="32px" height="32px" viewBox="0 0 32 32" style="enable-background:new 0 0 32 32;" xml:space="preserve">
<g id="surface1">
	<path style="fill:#E8E8E8;" d="M19,3C13.488,3,9,7.488,9,13c0,2.395,0.84,4.59,2.25,6.313l-7.969,7.969l1.438,1.438l7.969-7.969
		C14.41,22.16,16.605,23,19,23c5.512,0,10-4.488,10-10S24.512,3,19,3z M19,5c4.43,0,8,3.57,8,8s-3.57,8-8,8s-8-3.57-8-8
		S14.57,5,19,5z"/>
</g>
</svg>
