<?xml version="1.0" encoding="UTF-8"?>
<svg xmlns="http://www.w3.org/2000/svg" xmlns:xlink="http://www.w3.org/1999/xlink" viewBox="0 0 16 16" version="1.1" fill="#fcb040" width="32px" height="32px">
<g id="surface1" fill="#fcb040">
<path style=" " d="M 8 0.960938 L 7.539063 2.054688 L 5.953125 5.820313 L 0.992188 6.359375 L 4.703125 9.859375 L 3.648438 15.023438 L 8 12.375 L 12.347656 15.023438 L 11.296875 9.859375 L 15.003906 6.359375 L 10.046875 5.820313 Z M 8 3.535156 L 9.355469 6.75 L 12.746094 7.117188 L 10.207031 9.515625 L 10.910156 12.976563 L 8 11.203125 L 5.085938 12.976563 L 5.792969 9.515625 L 3.257813 7.117188 L 6.644531 6.75 Z " fill="#fcb040"/>
</g>
</svg>
