<?xml version="1.0" encoding="iso-8859-1"?>
<!-- Generator: Adobe Illustrator 15.0.2, SVG Export Plug-In . SVG Version: 6.00 Build 0)  -->
<!DOCTYPE svg PUBLIC "-//W3C//DTD SVG 1.1//EN" "http://www.w3.org/Graphics/SVG/1.1/DTD/svg11.dtd">
<svg version="1.1" id="Layer_1" xmlns="http://www.w3.org/2000/svg" xmlns:xlink="http://www.w3.org/1999/xlink" x="0px" y="0px"
	 width="164.222px" height="35.792px" viewBox="0 0 164.222 35.792" style="enable-background:new 0 0 164.222 35.792;"
	 xml:space="preserve">
<g>
	<path style="fill:#DA1C5C;" d="M5.278,35.792L0,31.645l0,0l13.988-9.06l7.25,5.474"/>
</g>
<g>
	<path style="fill:#8DC63F;" d="M0,31.645L18.314,0l2.96,10.179l-7.287,12.406L0,31.645z"/>
</g>
<g>
	<path style="fill:#5F469C;" d="M21.314,28.059l7.25-5.474l13.988,9.06l0,0l-5.277,4.147"/>
</g>
<g>
	<path style="fill:#F15A29;" d="M28.564,22.585l-7.287-12.406L24.238,0l18.314,31.645L28.564,22.585z"/>
</g>
<polygon style="fill:#00AEEF;" points="13.982,22.59 21.278,18.765 21.278,18.765 28.745,22.538 21.278,28.059 21.238,28.059 "/>
<polygon style="fill:#FBB040;" points="28.776,22.59 21.281,10.179 13.982,22.59 21.312,18.8 "/>
<polygon style="fill:#39B54A;" points="18.314,0 21.275,10.179 24.241,0 "/>
<g>
	<path style="fill:#FFFFFF;" d="M66.604,29.188l-2.654-6.782h-8.547l-2.625,6.782h-2.509l8.43-21.412h2.086l8.387,21.412H66.604z
		 M63.177,20.175l-2.479-6.607c-0.321-0.836-0.652-1.862-0.992-3.078c-0.214,0.934-0.521,1.959-0.919,3.078l-2.509,6.607H63.177z"/>
	<path style="fill:#FFFFFF;" d="M72.271,7.865h6.024c2.83,0,4.876,0.423,6.14,1.269c1.264,0.846,1.896,2.183,1.896,4.011
		c0,1.264-0.353,2.307-1.058,3.128c-0.705,0.822-1.733,1.354-3.085,1.597v0.146c3.238,0.554,4.857,2.256,4.857,5.105
		c0,1.906-0.644,3.394-1.933,4.463c-1.288,1.07-3.09,1.604-5.404,1.604h-7.438V7.865z M74.75,16.995h4.084
		c1.75,0,3.009-0.275,3.778-0.824c0.768-0.549,1.152-1.475,1.152-2.778c0-1.196-0.428-2.059-1.283-2.589
		c-0.856-0.53-2.217-0.795-4.084-0.795H74.75V16.995z M74.75,19.095v7.979h4.449c1.721,0,3.017-0.333,3.887-0.999
		s1.306-1.709,1.306-3.129c0-1.322-0.445-2.294-1.334-2.917c-0.89-0.622-2.244-0.934-4.062-0.934H74.75z"/>
	<path style="fill:#FFFFFF;" d="M104.698,14.078c0,2.159-0.736,3.819-2.209,4.981s-3.581,1.743-6.323,1.743h-2.509v8.387h-2.479
		V7.865h5.528C102.034,7.865,104.698,9.936,104.698,14.078z M93.657,18.672h2.231c2.198,0,3.788-0.355,4.77-1.065
		c0.982-0.709,1.473-1.847,1.473-3.413c0-1.41-0.462-2.46-1.386-3.15s-2.363-1.036-4.317-1.036h-2.771V18.672z"/>
	<path style="fill:#FFFFFF;" d="M127.494,18.498c0,3.413-0.863,6.097-2.589,8.051c-1.726,1.955-4.125,2.932-7.198,2.932
		c-3.141,0-5.563-0.96-7.271-2.88c-1.707-1.92-2.56-4.631-2.56-8.131c0-3.471,0.855-6.163,2.567-8.073s4.142-2.866,7.292-2.866
		c3.063,0,5.455,0.972,7.177,2.917C126.633,12.391,127.494,15.075,127.494,18.498z M110.502,18.498c0,2.888,0.615,5.078,1.845,6.57
		c1.229,1.493,3.017,2.239,5.359,2.239c2.363,0,4.147-0.744,5.354-2.232c1.205-1.487,1.809-3.68,1.809-6.578
		c0-2.869-0.601-5.044-1.802-6.527c-1.201-1.482-2.978-2.224-5.331-2.224c-2.362,0-4.159,0.747-5.389,2.239
		C111.117,13.478,110.502,15.648,110.502,18.498z"/>
	<path style="fill:#FFFFFF;" d="M145.229,14.078c0,2.159-0.736,3.819-2.21,4.981c-1.473,1.162-3.58,1.743-6.322,1.743h-2.509v8.387
		h-2.479V7.865h5.528C142.565,7.865,145.229,9.936,145.229,14.078z M134.188,18.672h2.231c2.197,0,3.787-0.355,4.77-1.065
		c0.982-0.709,1.474-1.847,1.474-3.413c0-1.41-0.462-2.46-1.386-3.15s-2.363-1.036-4.317-1.036h-2.771V18.672z"/>
	<path style="fill:#FFFFFF;" d="M161.352,29.188l-2.655-6.782h-8.547l-2.625,6.782h-2.509l8.431-21.412h2.085l8.387,21.412H161.352z
		 M157.924,20.175l-2.479-6.607c-0.321-0.836-0.651-1.862-0.992-3.078c-0.214,0.934-0.521,1.959-0.919,3.078l-2.509,6.607H157.924z"
		/>
</g>
<g>
	<path style="fill:#DA1C5C;" d="M5.278,35.792L0,31.645l0,0l13.988-9.06l7.25,5.474"/>
</g>
<g>
	<path style="fill:#8DC63F;" d="M0,31.645L18.314,0l2.96,10.179l-7.287,12.406L0,31.645z"/>
</g>
<g>
	<path style="fill:#5F469C;" d="M21.314,28.059l7.25-5.474l13.988,9.06l0,0l-5.277,4.147"/>
</g>
<g>
	<path style="fill:#F15A29;" d="M28.564,22.585l-7.287-12.406L24.238,0l18.314,31.645L28.564,22.585z"/>
</g>
<polygon style="fill:#00AEEF;" points="13.982,22.59 21.278,18.765 21.278,18.765 28.745,22.538 21.278,28.059 21.238,28.059 "/>
<polygon style="fill:#FBB040;" points="28.776,22.59 21.281,10.179 13.982,22.59 21.312,18.8 "/>
<polygon style="fill:#39B54A;" points="18.314,0 21.275,10.179 24.241,0 "/>
</svg>
